<?xml version="1.0"?>
<svg xmlns="http://www.w3.org/2000/svg" viewBox="0 0 100 100" width="50px" height="50px">
    <path d="M 30.5 17.5 C 23.332 17.5 17.5 23.332 17.5 30.5 L 17.5 69.5 C 17.5 76.668 23.332 82.5 30.5 82.5 L 69.5 82.5 C 76.668 82.5 82.5 76.668 82.5 69.5 L 82.5 30.5 C 82.5 23.332 76.668 17.5 69.5 17.5 L 30.5 17.5 z M 30.5 19.5 L 69.5 19.5 C 75.565 19.5 80.5 24.435 80.5 30.5 L 80.5 69.5 C 80.5 75.565 75.565 80.5 69.5 80.5 L 30.5 80.5 C 24.435 80.5 19.5 75.565 19.5 69.5 L 19.5 30.5 C 19.5 24.435 24.435 19.5 30.5 19.5 z M 33.337891 22.498047 C 27.361891 22.498047 22.5 27.361891 22.5 33.337891 L 22.5 66.662109 C 22.5 72.638109 27.362891 77.498047 33.337891 77.498047 L 66.662109 77.498047 C 72.638109 77.498047 77.5 72.638109 77.5 66.662109 L 77.5 48 C 77.5 47.723 77.276 47.5 77 47.5 C 76.724 47.5 76.5 47.724 76.5 48 L 76.5 66.662109 C 76.5 72.086109 72.086109 76.5 66.662109 76.5 L 33.337891 76.5 C 27.913891 76.5 23.5 72.086109 23.5 66.662109 L 23.5 33.337891 C 23.5 27.912891 27.913891 23.498047 33.337891 23.498047 L 67 23.498047 C 67.276 23.498047 67.5 23.274047 67.5 22.998047 C 67.5 22.722047 67.276 22.498047 67 22.498047 L 33.337891 22.498047 z M 49.095703 31.474609 C 48.809703 31.474609 48.574344 31.512063 48.402344 31.539062 C 48.219344 31.560063 47.852812 31.601297 47.382812 31.779297 C 46.545812 32.088297 45.842375 32.633563 45.359375 33.351562 C 44.900375 34.037562 44.614125 34.912422 44.453125 36.107422 C 44.301125 37.213422 44.279625 38.363484 44.390625 39.521484 C 44.501625 40.682484 44.769547 42.021047 45.185547 43.498047 C 45.365547 44.140047 45.620438 44.983703 46.023438 45.970703 C 45.920437 46.262703 45.814125 46.553703 45.703125 46.845703 C 44.339125 50.433703 42.457594 53.7245 41.058594 55.9375 C 39.904594 56.3755 38.862078 56.821719 37.955078 57.261719 C 35.907078 58.260719 34.101141 59.470922 32.869141 60.669922 C 31.774141 61.738922 31.142 62.790469 30.875 63.980469 C 30.62 65.077469 30.724922 66.143609 31.169922 66.974609 C 31.707922 67.976609 32.663328 68.527344 33.861328 68.527344 C 34.103328 68.527344 34.357188 68.505937 34.617188 68.460938 C 35.906188 68.238938 37.18625 67.5765 38.53125 66.4375 C 40.18125 65.0315 42.058938 62.800375 43.960938 59.984375 L 44.099609 59.775391 C 44.916609 59.492391 45.740734 59.229188 46.552734 58.992188 C 48.657734 58.374187 50.268312 58.050922 51.695312 57.794922 C 52.643313 57.622922 53.416937 57.497203 54.085938 57.408203 C 54.505938 57.853203 54.911875 58.27225 55.296875 58.65625 C 56.659875 60.01425 57.819641 61.009813 59.056641 61.882812 C 60.333641 62.791812 61.504156 63.40975 62.535156 63.71875 C 63.119156 63.89275 63.708156 63.980469 64.285156 63.980469 C 64.880156 63.980469 65.470109 63.887125 66.037109 63.703125 C 67.349109 63.286125 68.321797 62.480953 68.841797 61.376953 C 69.410797 60.174953 69.396687 58.676188 68.804688 57.367188 C 68.320688 56.279187 67.40075 55.269297 66.21875 54.529297 C 65.32975 53.968297 64.310969 53.564656 62.917969 53.222656 C 61.709969 52.934656 60.418688 52.730859 59.179688 52.630859 C 58.522687 52.574859 57.843062 52.546875 57.164062 52.546875 C 56.767063 52.546875 56.367797 52.555219 55.966797 52.574219 C 55.342797 51.862219 54.746516 51.151094 54.228516 50.496094 C 52.905516 48.817094 51.802969 47.174047 51.042969 45.748047 C 51.030969 45.725047 51.017859 45.700734 51.005859 45.677734 C 52.005859 42.404734 52.570578 39.302266 52.767578 37.447266 L 52.847656 36.71875 C 53.028656 35.12575 53.254078 33.147922 51.205078 32.169922 C 51.198078 32.165922 51.191594 32.16025 51.183594 32.15625 C 50.854594 31.96725 50.453859 31.738422 50.005859 31.607422 C 49.709859 31.519422 49.409703 31.474609 49.095703 31.474609 z M 49.097656 32.476562 C 49.284656 32.476562 49.493563 32.499359 49.726562 32.568359 C 50.062562 32.666359 50.393547 32.856437 50.685547 33.023438 L 50.683594 33.029297 C 52.186594 33.690297 52.038516 34.980375 51.853516 36.609375 L 51.773438 37.341797 C 51.565438 39.300797 50.969688 42.471484 49.929688 45.771484 C 50.001688 45.917484 50.079156 46.06675 50.160156 46.21875 C 50.947156 47.69575 52.083359 49.390188 53.443359 51.117188 C 54.070359 51.909188 54.789109 52.761562 55.537109 53.601562 C 56.082109 53.564563 56.625062 53.546875 57.164062 53.546875 C 57.818063 53.546875 58.464609 53.574906 59.099609 53.628906 C 60.286609 53.724906 61.527688 53.921313 62.679688 54.195312 C 63.967687 54.511313 64.893453 54.875953 65.689453 55.376953 C 66.703453 56.009953 67.487531 56.863344 67.894531 57.777344 C 68.366531 58.819344 68.3835 60.006219 67.9375 60.949219 C 67.5395 61.794219 66.776422 62.418 65.732422 62.75 C 65.263422 62.902 64.779109 62.978516 64.287109 62.978516 C 63.806109 62.978516 63.318219 62.906766 62.824219 62.759766 C 61.901219 62.483766 60.828766 61.914453 59.634766 61.064453 C 58.449766 60.229453 57.327906 59.267266 56.003906 57.947266 C 55.502906 57.449266 54.98475 56.909516 54.46875 56.353516 C 53.64375 56.448516 52.709531 56.595547 51.519531 56.810547 C 50.064531 57.071547 48.422437 57.401203 46.273438 58.033203 C 45.328437 58.309203 44.372078 58.617406 43.455078 58.941406 C 43.342078 59.112406 43.234813 59.274781 43.132812 59.425781 C 41.279812 62.169781 39.465719 64.329828 37.886719 65.673828 C 36.681719 66.694828 35.558172 67.284609 34.451172 67.474609 C 34.238172 67.510609 34.041328 67.527344 33.861328 67.527344 C 32.837328 67.527344 32.316734 66.993953 32.052734 66.501953 C 31.722734 65.884953 31.650563 65.067219 31.851562 64.199219 C 32.072563 63.211219 32.619359 62.313719 33.568359 61.386719 C 34.725359 60.260719 36.437578 59.114156 38.392578 58.160156 C 39.357578 57.691156 40.497609 57.212859 41.724609 56.755859 C 43.156609 54.518859 45.182672 51.032172 46.638672 47.201172 C 46.798672 46.780172 46.94975 46.3585 47.09375 45.9375 C 46.64275 44.8935 46.365437 43.998562 46.148438 43.226562 C 45.749437 41.808563 45.491719 40.529781 45.386719 39.425781 C 45.282719 38.342781 45.303313 37.271234 45.445312 36.240234 C 45.584313 35.203234 45.820453 34.462156 46.189453 33.910156 C 46.556453 33.366156 47.090281 32.955797 47.738281 32.716797 C 48.096281 32.580797 48.374063 32.55025 48.539062 32.53125 C 48.693063 32.50725 48.879656 32.476562 49.097656 32.476562 z M 48.958984 35.097656 C 48.983984 35.106656 49.008156 35.116906 49.035156 35.128906 L 48.964844 35.140625 C 48.735844 35.167625 48.720062 35.170406 48.664062 35.191406 C 48.527062 35.242406 48.437766 35.304813 48.384766 35.382812 C 48.312766 35.490812 48.172453 35.796703 48.064453 36.595703 C 47.951453 37.416703 47.935578 38.307828 48.017578 39.173828 C 48.079578 39.820828 48.205578 40.550562 48.392578 41.351562 C 48.780578 39.658563 49.028531 38.155547 49.144531 37.060547 L 49.228516 36.310547 C 49.271516 35.933547 49.314078 35.548969 49.330078 35.292969 C 49.231078 35.235969 49.130109 35.172906 49.037109 35.128906 L 49.134766 35.113281 C 49.124766 35.114281 49.11075 35.115234 49.09375 35.115234 C 49.05475 35.115234 49.002984 35.110656 48.958984 35.097656 z M 77 36.5 C 76.724 36.5 76.5 36.723 76.5 37 L 76.5 39 C 76.5 39.276 76.724 39.5 77 39.5 C 77.276 39.5 77.5 39.276 77.5 39 L 77.5 37 C 77.5 36.724 77.276 36.5 77 36.5 z M 77 40.5 C 76.724 40.5 76.5 40.724 76.5 41 L 76.5 45 C 76.5 45.276 76.724 45.5 77 45.5 C 77.276 45.5 77.5 45.276 77.5 45 L 77.5 41 C 77.5 40.723 77.276 40.5 77 40.5 z M 48.748047 49.052734 C 47.785047 51.419734 46.646891 53.628516 45.587891 55.478516 C 47.833891 54.820516 49.607828 54.467984 51.048828 54.208984 C 51.523828 54.122984 51.960141 54.047469 52.369141 53.980469 C 52.018141 53.562469 51.682187 53.151906 51.367188 52.753906 C 50.372187 51.491906 49.485047 50.235734 48.748047 49.052734 z M 48.935547 51.150391 C 49.424547 51.853391 49.953578 52.569062 50.517578 53.289062 C 49.661578 53.446063 48.691891 53.63925 47.587891 53.90625 C 48.073891 52.97625 48.524547 52.056391 48.935547 51.150391 z M 58.001953 56.205078 C 59.157953 57.346078 60.137156 58.18425 61.160156 58.90625 C 62.357156 59.75825 63.135172 60.092609 63.576172 60.224609 C 63.824172 60.297609 64.057203 60.335938 64.283203 60.335938 C 64.502203 60.335938 64.714781 60.301375 64.925781 60.234375 C 65.117781 60.173375 65.445828 60.041266 65.548828 59.822266 C 65.639828 59.626266 65.657375 59.248281 65.484375 58.863281 C 65.288375 58.421281 64.851203 57.970234 64.283203 57.615234 C 63.733203 57.268234 63.049594 57.007672 62.058594 56.763672 C 61.043594 56.520672 59.940859 56.344766 58.880859 56.259766 C 58.590859 56.234766 58.296953 56.216078 58.001953 56.205078 z M 61.027344 57.564453 C 61.297344 57.616453 61.564219 57.674328 61.824219 57.736328 C 62.701219 57.951328 63.297 58.174938 63.75 58.460938 C 64.222 58.755938 64.482313 59.071578 64.570312 59.267578 C 64.574313 59.275578 64.576078 59.284969 64.580078 59.292969 C 64.479078 59.320969 64.382203 59.333984 64.283203 59.333984 C 64.155203 59.333984 64.017328 59.311625 63.861328 59.265625 C 63.560328 59.175625 62.883234 58.904797 61.740234 58.091797 C 61.501234 57.922797 61.264344 57.747453 61.027344 57.564453 z M 38.728516 60.955078 C 36.936516 61.920078 35.898109 62.803344 35.412109 63.277344 C 34.709109 63.965344 34.5155 64.422094 34.4375 64.746094 C 34.8465 64.601094 35.409781 64.306203 36.175781 63.658203 C 36.782781 63.140203 37.640516 62.298078 38.728516 60.955078 z"/>
</svg>
